{
  "count": 34790,
  "next": "http://galaxy.ansible.com/api/v1/roles/?page=2&page_size=250",
  "previous": null,
  "results": [
    {
      "commit": "a1c5df38855094dbd9b09e1d2f576cb4644942d3",
      "commit_message": "Add molecule test (#1)\n\n* Adds yamllint for local and molecule\r\n\r\n* Adds molecule and use in travis CI\r\n\r\n* Test multiple distro in single travis run\r\n\r\n* Relicence to MIT\r\n\r\n* Adds build badge\r\n\r\n* Revise supported ansible versions",
      "created": "2023-05-08T20:18:03.967956Z",
      "description": "Install Sublime Text 3 on your machine. Supports both the dev and stable release channels.",
      "download_count": 144,
      "github_branch": "master",
      "github_repo": "ansible-role_sublimetext",
      "github_user": "00willo",
      "id": 1,
      "imported": "2019-04-26T23:03:27.101139-04:00",
      "modified": "2023-10-29T18:44:31.726634Z",
      "name": "sublimetext-3",
      "summary_fields": {
        "dependencies": [],
        "namespace": {
          "avatar_url": "https://galaxy.ansible.com/api/pulp/api/v3/content/ansible/namespaces/018d1a01-e981-7ebe-b586-c66c8e1230c0/avatar/",
          "id": 1,
          "name": "00willo"
        },
        "provider_namespace": {
          "id": 13604,
          "name": "gh_00willo",
          "pulp_href": "/api/pulp/api/v3/pulp_ansible/namespaces/13604/"
        },
        "repository": {
          "name": "ansible-role_sublimetext",
          "original_name": "ansible-role_sublimetext"
        },
        "tags": [
          "development",
          "editor",
          "ide",
          "workstation"
        ],
        "versions": []
      },
      "upstream_id": 24559,
      "username": "00willo"
    },
    {
      "commit": "18a9d15033bb5131d0133187053b49a9f207f4f0",
      "commit_message": "[GH-1] bfg could not be found.",
      "created": "2023-05-08T20:18:04.098249Z",
      "description": "ansible-bfg",
      "download_count": 1273,
      "github_branch": "master",
      "github_repo": "ansible-bfg",
      "github_user": "030",
      "id": 2,
      "imported": "2020-05-03T03:55:52.049714-04:00",
      "modified": "2023-10-29T18:44:31.731039Z",
      "name": "ansible_bfg",
      "summary_fields": {
        "dependencies": [],
        "namespace": {
          "avatar_url": "https://galaxy.ansible.com/api/pulp/api/v3/content/ansible/namespaces/018d1a01-e9f6-7f73-8947-1669a4367d4e/avatar/",
          "id": 2,
          "name": "030"
        },
        "provider_namespace": {
          "id": 13605,
          "name": "gh_030",
          "pulp_href": "/api/pulp/api/v3/pulp_ansible/namespaces/13605/"
        },
        "repository": {
          "name": "ansible-bfg",
          "original_name": "ansible-bfg"
        },
        "tags": [
          "bfg"
        ],
        "versions": [
          {
            "id": 125411,
            "name": "1.0.1",
            "release_date": "2020-05-03T03:29:17-04:00"
          },
          {
            "id": 124481,
            "name": "1.0.0",
            "release_date": "2020-04-22T03:59:00-04:00"
          }
        ]
      },
      "upstream_id": 48126,
      "username": "030"
    },
    {
      "commit": "275fcab4cf47da97c8516d6df0efe80075362683",
      "commit_message": "Update to 0.105.0.",
      "created": "2023-05-08T20:18:04.529182Z",
      "description": "ansible-eksctl",
      "download_count": 155,
      "github_branch": "master",
      "github_repo": "ansible-eksctl",
      "github_user": "030",
      "id": 3,
      "imported": "2022-07-18T13:20:32.817614-04:00",
      "modified": "2023-10-29T18:44:31.735362Z",
      "name": "ansible_eksctl",
      "summary_fields": {
        "dependencies": [],
        "namespace": {
          "avatar_url": "https://galaxy.ansible.com/api/pulp/api/v3/content/ansible/namespaces/018d1a01-e9f6-7f73-8947-1669a4367d4e/avatar/",
          "id": 2,
          "name": "030"
        },
        "provider_namespace": {
          "id": 13605,
          "name": "gh_030",
          "pulp_href": "/api/pulp/api/v3/pulp_ansible/namespaces/13605/"
        },
        "repository": {
          "name": "ansible-eksctl",
          "original_name": "ansible-eksctl"
        },
        "tags": [
          "eksctl"
        ],
        "versions": [
          {
            "id": 189723,
            "name": "1.0.6",
            "release_date": "2022-07-18T13:19:05-04:00"
          },
          {
            "id": 186689,
            "name": "1.0.5",
            "release_date": "2022-06-03T00:51:11-04:00"
          },
          {
            "id": 166568,
            "name": "1.0.4",
            "release_date": "2021-10-18T07:44:15-04:00"
          },
          {
            "id": 165872,
            "name": "1.0.3",
            "release_date": "2021-10-08T11:02:41-04:00"
          },
          {
            "id": 162952,
            "name": "1.0.2",
            "release_date": "2021-08-27T04:30:15-04:00"
          },
          {
            "id": 127973,
            "name": "1.0.1",
            "release_date": "2020-05-29T13:30:22-04:00"
          },
          {
            "id": 127971,
            "name": "1.0.0",
            "release_date": "2020-05-29T13:03:04-04:00"
          }
        ]
      },
      "upstream_id": 48981,
      "username": "030"
    }
  ]
}